{
  "configVersion": 2,
  "packages": [
    {
      "name": "async",
      "rootUri": "file:///Users/q/Downloads/flutter/.pub-cache/hosted/pub.dartlang.org/async-2.4.2",
      "packageUri": "lib/",
      "languageVersion": "2.2"
    },
    {
      "name": "boolean_selector",
      "rootUri": "file:///Users/q/Downloads/flutter/.pub-cache/hosted/pub.dartlang.org/boolean_selector-2.0.0",
      "packageUri": "lib/",
      "languageVersion": "2.4"
    },
    {
      "name": "characters",
      "rootUri": "file:///Users/q/Downloads/flutter/.pub-cache/hosted/pub.dartlang.org/characters-1.0.0",
      "packageUri": "lib/",
      "languageVersion": "2.6"
    },
    {
      "name": "charcode",
      "rootUri": "file:///Users/q/Downloads/flutter/.pub-cache/hosted/pub.dartlang.org/charcode-1.1.3",
      "packageUri": "lib/",
      "languageVersion": "2.0"
    },
    {
      "name": "clock",
      "rootUri": "file:///Users/q/Downloads/flutter/.pub-cache/hosted/pub.dartlang.org/clock-1.0.1",
      "packageUri": "lib/",
      "languageVersion": "2.0"
    },
    {
      "name": "collection",
      "rootUri": "file:///Users/q/Downloads/flutter/.pub-cache/hosted/pub.dartlang.org/collection-1.14.13",
      "packageUri": "lib/",
      "languageVersion": "2.3"
    },
    {
      "name": "cupertino_icons",
      "rootUri": "file:///Users/q/Downloads/flutter/.pub-cache/hosted/pub.dartlang.org/cupertino_icons-0.1.3",
      "packageUri": "lib/",
      "languageVersion": "2.0"
    },
    {
      "name": "dotted_border",
      "rootUri": "file:///Users/q/Downloads/flutter/.pub-cache/hosted/pub.dartlang.org/dotted_border-1.0.6",
      "packageUri": "lib/",
      "languageVersion": "2.2"
    },
    {
      "name": "draggable_widget",
      "rootUri": "file:///Users/q/Downloads/flutter/.pub-cache/hosted/pub.dartlang.org/draggable_widget-1.0.1",
      "packageUri": "lib/",
      "languageVersion": "2.7"
    },
    {
      "name": "fake_async",
      "rootUri": "file:///Users/q/Downloads/flutter/.pub-cache/hosted/pub.dartlang.org/fake_async-1.1.0",
      "packageUri": "lib/",
      "languageVersion": "2.2"
    },
    {
      "name": "flutter",
      "rootUri": "file:///Users/q/Downloads/flutter/packages/flutter",
      "packageUri": "lib/",
      "languageVersion": "2.9"
    },
    {
      "name": "flutter_test",
      "rootUri": "file:///Users/q/Downloads/flutter/packages/flutter_test",
      "packageUri": "lib/",
      "languageVersion": "2.2"
    },
    {
      "name": "http",
      "rootUri": "file:///Users/q/Downloads/flutter/.pub-cache/hosted/pub.dartlang.org/http-0.12.2",
      "packageUri": "lib/",
      "languageVersion": "2.4"
    },
    {
      "name": "http_parser",
      "rootUri": "file:///Users/q/Downloads/flutter/.pub-cache/hosted/pub.dartlang.org/http_parser-3.1.4",
      "packageUri": "lib/",
      "languageVersion": "2.3"
    },
    {
      "name": "matcher",
      "rootUri": "file:///Users/q/Downloads/flutter/.pub-cache/hosted/pub.dartlang.org/matcher-0.12.8",
      "packageUri": "lib/",
      "languageVersion": "2.4"
    },
    {
      "name": "meta",
      "rootUri": "file:///Users/q/Downloads/flutter/.pub-cache/hosted/pub.dartlang.org/meta-1.1.8",
      "packageUri": "lib/",
      "languageVersion": "1.12"
    },
    {
      "name": "path",
      "rootUri": "file:///Users/q/Downloads/flutter/.pub-cache/hosted/pub.dartlang.org/path-1.7.0",
      "packageUri": "lib/",
      "languageVersion": "2.0"
    },
    {
      "name": "path_drawing",
      "rootUri": "file:///Users/q/Downloads/flutter/.pub-cache/hosted/pub.dartlang.org/path_drawing-0.4.1+1",
      "packageUri": "lib/",
      "languageVersion": "1.19"
    },
    {
      "name": "path_parsing",
      "rootUri": "file:///Users/q/Downloads/flutter/.pub-cache/hosted/pub.dartlang.org/path_parsing-0.1.4",
      "packageUri": "lib/",
      "languageVersion": "1.19"
    },
    {
      "name": "pedantic",
      "rootUri": "file:///Users/q/Downloads/flutter/.pub-cache/hosted/pub.dartlang.org/pedantic-1.9.0",
      "packageUri": "lib/",
      "languageVersion": "2.1"
    },
    {
      "name": "provider",
      "rootUri": "file:///Users/q/Downloads/flutter/.pub-cache/hosted/pub.dartlang.org/provider-3.2.0",
      "packageUri": "lib/",
      "languageVersion": "2.0"
    },
    {
      "name": "rulers",
      "rootUri": "file:///Users/q/Downloads/flutter/.pub-cache/hosted/pub.dartlang.org/rulers-1.0.3",
      "packageUri": "lib/",
      "languageVersion": "2.1"
    },
    {
      "name": "sky_engine",
      "rootUri": "file:///Users/q/Downloads/flutter/bin/cache/pkg/sky_engine",
      "packageUri": "lib/",
      "languageVersion": "1.11"
    },
    {
      "name": "source_span",
      "rootUri": "file:///Users/q/Downloads/flutter/.pub-cache/hosted/pub.dartlang.org/source_span-1.7.0",
      "packageUri": "lib/",
      "languageVersion": "2.6"
    },
    {
      "name": "stack_trace",
      "rootUri": "file:///Users/q/Downloads/flutter/.pub-cache/hosted/pub.dartlang.org/stack_trace-1.9.5",
      "packageUri": "lib/",
      "languageVersion": "2.0"
    },
    {
      "name": "stream_channel",
      "rootUri": "file:///Users/q/Downloads/flutter/.pub-cache/hosted/pub.dartlang.org/stream_channel-2.0.0",
      "packageUri": "lib/",
      "languageVersion": "2.0"
    },
    {
      "name": "string_scanner",
      "rootUri": "file:///Users/q/Downloads/flutter/.pub-cache/hosted/pub.dartlang.org/string_scanner-1.0.5",
      "packageUri": "lib/",
      "languageVersion": "2.0"
    },
    {
      "name": "term_glyph",
      "rootUri": "file:///Users/q/Downloads/flutter/.pub-cache/hosted/pub.dartlang.org/term_glyph-1.1.0",
      "packageUri": "lib/",
      "languageVersion": "1.8"
    },
    {
      "name": "test_api",
      "rootUri": "file:///Users/q/Downloads/flutter/.pub-cache/hosted/pub.dartlang.org/test_api-0.2.17",
      "packageUri": "lib/",
      "languageVersion": "2.7"
    },
    {
      "name": "typed_data",
      "rootUri": "file:///Users/q/Downloads/flutter/.pub-cache/hosted/pub.dartlang.org/typed_data-1.2.0",
      "packageUri": "lib/",
      "languageVersion": "2.4"
    },
    {
      "name": "vector_math",
      "rootUri": "file:///Users/q/Downloads/flutter/.pub-cache/hosted/pub.dartlang.org/vector_math-2.0.8",
      "packageUri": "lib/",
      "languageVersion": "2.0"
    },
    {
      "name": "app",
      "rootUri": "../",
      "packageUri": "lib/",
      "languageVersion": "2.7"
    }
  ],
  "generated": "2020-09-29T01:29:52.313399Z",
  "generator": "pub",
  "generatorVersion": "2.9.2"
}
